{
  "__type__": "cc.AnimationClip",
  "_name": "ability2",
  "_objFlags": 0,
  "_native": "",
  "_duration": 0.6,
  "sample": 60,
  "speed": 1,
  "wrapMode": 1,
  "curveData": {
    "comps": {
      "cc.Sprite": {
        "spriteFrame": [
          {
            "frame": 0,
            "value": {
              "__uuid__": "3ebb9a9d-ce52-408d-980a-906322b5330b"
            }
          },
          {
            "frame": 0.5833333333333334,
            "value": {
              "__uuid__": "fa0782fe-6ff2-4704-ba2b-09f513c3b088"
            }
          }
        ]
      }
    },
    "props": {
      "opacity": [
        {
          "frame": 0,
          "value": 0
        },
        {
          "frame": 0.3333333333333333,
          "value": 255
        },
        {
          "frame": 0.4666666666666667,
          "value": 255
        },
        {
          "frame": 0.6,
          "value": 150
        }
      ]
    }
  },
  "events": []
}