{
  "__type__": "cc.AnimationClip",
  "_name": "bat_2",
  "_objFlags": 0,
  "_native": "",
  "_duration": 0.5166666666666667,
  "sample": 60,
  "speed": 1,
  "wrapMode": 2,
  "curveData": {
    "comps": {
      "cc.Sprite": {
        "spriteFrame": [
          {
            "frame": 0,
            "value": {
              "__uuid__": "f2d76bf1-3452-42bd-a4ff-1277b99fc6c2"
            }
          },
          {
            "frame": 0.25,
            "value": {
              "__uuid__": "d9f2d84e-ebee-49ee-b7e0-b55e6d4229c8"
            }
          },
          {
            "frame": 0.5,
            "value": {
              "__uuid__": "f2d76bf1-3452-42bd-a4ff-1277b99fc6c2"
            }
          }
        ]
      }
    }
  },
  "events": []
}