{
  "__type__": "cc.AnimationClip",
  "_name": "bat_man",
  "_objFlags": 0,
  "_native": "",
  "_duration": 0.5166666666666667,
  "sample": 60,
  "speed": 1,
  "wrapMode": 2,
  "curveData": {
    "comps": {
      "cc.Sprite": {
        "spriteFrame": [
          {
            "frame": 0,
            "value": {
              "__uuid__": "73c56c20-0e62-4798-bbac-9dcccb301287"
            }
          },
          {
            "frame": 0.25,
            "value": {
              "__uuid__": "23a996ae-8433-4883-8208-f64fb23e3041"
            }
          },
          {
            "frame": 0.5,
            "value": {
              "__uuid__": "73c56c20-0e62-4798-bbac-9dcccb301287"
            }
          }
        ]
      }
    }
  },
  "events": []
}