{
  "__type__": "cc.AnimationClip",
  "_name": "dark_slime",
  "_objFlags": 0,
  "_native": "",
  "_duration": 0.5166666666666667,
  "sample": 60,
  "speed": 1,
  "wrapMode": 2,
  "curveData": {
    "comps": {
      "cc.Sprite": {
        "spriteFrame": [
          {
            "frame": 0,
            "value": {
              "__uuid__": "1680f7e5-2fc7-4e19-bd6b-499660e62725"
            }
          },
          {
            "frame": 0.25,
            "value": {
              "__uuid__": "a460cd09-82c1-42ea-9afb-e6a2b5b0fc7c"
            }
          },
          {
            "frame": 0.5,
            "value": {
              "__uuid__": "1680f7e5-2fc7-4e19-bd6b-499660e62725"
            }
          }
        ]
      }
    }
  },
  "events": []
}